Model/CNN/dataflow_build_dir_custom/output_estimates_only/report/verify_rtlsim.vcd
$version Generated by VerilatedVcd $end
$date Tue Nov 15 11:52:31 2022
 $end
$timescale   1ns $end

 $scope module TOP $end
  $var wire  1 # ap_clk $end
  $var wire  1 $ ap_rst_n $end
  $var wire 24 % m_axis_0_tdata [23:0] $end
  $var wire  1 & m_axis_0_tready $end
  $var wire  1 ' m_axis_0_tvalid $end
  $var wire  8 ( s_axis_0_tdata [7:0] $end
  $var wire  1 ) s_axis_0_tready $end
  $var wire  1 * s_axis_0_tvalid $end
  $scope module finn_design_wrapper $end
   $var wire  1 # ap_clk $end
   $var wire  1 $ ap_rst_n $end
   $var wire 24 % m_axis_0_tdata [23:0] $end
   $var wire  1 & m_axis_0_tready $end
   $var wire  1 ' m_axis_0_tvalid $end
   $var wire  8 ( s_axis_0_tdata [7:0] $end
   $var wire  1 ) s_axis_0_tready $end
   $var wire  1 * s_axis_0_tvalid $end
  $upscope $end
 $upscope $end
$enddefinitions $end


#5
1#
1$
b000000000000000000000000 %
0&
0'
b00000000 (
1)
0*
#10
#15
#20
#25
1&
b01011110 (
1*
#30
#35
0#
b00010101 (
#40
#45
1#
#50
#55
0#
b01001111 (
#60
#65
1#
#70
#75
0#
b11100001 (
#80
#85
1#
#90
#95
0#
b10011111 (
0)
#100
#105
1#
#110
#115
0#
#120
#125
1#
#130
#135
0#
#140
#145
1#
#150
#155
0#
#160
#165
1#
#170
#175
0#
#180
#185
1#
#190
#195
0#
#200
#205
1#
#210
#215
0#
1)
#220
#225
1#
#230
#235
0#
b10110110 (
#240
#245
1#
#250
#255
0#
b01001011 (
#260
#265
1#
#270
#275
0#
b01011110 (
#280
#285
1#
#290
#295
0#
b00011000 (
#300
#305
1#
#310
#315
0#
b01010000 (
#320
#325
1#
#330
#335
0#
b11011100 (
#340
#345
1#
#350
#355
0#
b10011111 (
0)
#360
#365
1#
#370
#375
0#
#380
#385
1#
#390
#395
0#
1)
#400
#405
1#
#410
#415
0#
b10110110 (
#420
#425
1#
#430
#435
0#
b01001011 (
#440
#445
1#
#450
#455
0#
b01100001 (
#460
#465
1#
#470
#475
0#
b00010101 (
#480
#485
1#
#490
#495
0#
b01010001 (
#500
#505
1#
#510
#515
0#
b11111000 (
#520
#525
1#
#530
#535
0#
b10011111 (
0)
#540
#545
1#
#550
#555
0#
#560
#565
1#
#570
#575
0#
1)
#580
#585
1#
#590
#595
0#
b10110110 (
#600
#605
1#
#610
#615
0#
b01001011 (
#620
#625
1#
#630
#635
0#
b01111100 (
#640
#645
1#
#650
#655
0#
b00110101 (
#660
#665
1#
#670
#675
0#
b01001011 (
#680
#685
1#
#690
#695
0#
b11010011 (
#700
#705
1#
#710
#715
0#
b10011111 (
0)
#720
#725
1#
#730
#735
0#
#740
#745
1#
#750
#755
0#
1)
#760
#765
1#
#770
#775
0#
b10110110 (
#780
#785
1#
#790
#795
0#
b01001011 (
#800
#805
1#
#810
#815
0#
b01111101 (
#820
#825
1#
#830
#835
0#
b11011011 (
#840
#845
1#
#850
#855
0#
b01001001 (
#860
#865
1#
#870
#875
0#
b11101001 (
#880
#885
1#
#890
#895
0#
b10011111 (
0)
#900
#905
1#
#910
#915
0#
#920
#925
1#
#930
#935
0#
1)
#940
#945
1#
#950
#955
0#
b10110110 (
#960
#965
1#
#970
#975
0#
b01001011 (
#980
#985
1#
#990
#995
0#
b01111110 (
#1000
#1005
1#
#1010
#1015
0#
b11101101 (
#1020
#1025
1#
#1030
#1035
0#
b01001000 (
#1040
#1045
1#
#1050
#1055
0#
b11010011 (
#1060
#1065
1#
#1070
#1075
0#
b10011111 (
0)
#1080
#1085
1#
#1090
#1095
0#
#1100
#1105
1#
#1110
#1115
0#
1)
#1120
#1125
1#
#1130
#1135
0#
b10110110 (
#1140
#1145
1#
#1150
#1155
0#
b01001011 (
#1160
#1165
1#
#1170
#1175
0#
b01111111 (
#1180
#1185
1#
#1190
#1195
0#
b11001011 (
#1200
#1205
1#
#1210
#1215
0#
b01001000 (
#1220
#1225
1#
#1230
#1235
0#
b00011110 (
#1240
#1245
1#
#1250
#1255
0#
b10011111 (
0)
#1260
#1265
1#
#1270
#1275
0#
#1280
#1285
1#
#1290
#1295
0#
1)
#1300
#1305
1#
#1310
#1315
0#
b10110110 (
#1320
#1325
1#
#1330
#1335
0#
b01001011 (
#1340
#1345
1#
#1350
#1355
0#
b00000000 (
0*
