Model/CNN/dataflow_build_dir/output_estimates_only/report/rtlsim_perf_batch_1.vcd
$version Generated by VerilatedVcd $end
$date Thu Dec 15 03:18:28 2022
 $end
$timescale   1ns $end

 $scope module TOP $end
  $var wire  1 "9 ap_clk $end
  $var wire  1 ": ap_rst_n $end
  $var wire 16 "; m_axis_0_tdata [15:0] $end
  $var wire  1 "< m_axis_0_tready $end
  $var wire  1 "= m_axis_0_tvalid $end
  $var wire 1728 "> s_axis_0_tdata [1727:0] $end
  $var wire  1 "t s_axis_0_tready $end
  $var wire  1 "u s_axis_0_tvalid $end
  $scope module finn_design_wrapper $end
   $var wire  1 "9 ap_clk $end
   $var wire  1 ": ap_rst_n $end
   $var wire 16 "; m_axis_0_tdata [15:0] $end
   $var wire  1 "< m_axis_0_tready $end
   $var wire  1 "= m_axis_0_tvalid $end
   $var wire 1728 "> s_axis_0_tdata [1727:0] $end
   $var wire  1 "t s_axis_0_tready $end
   $var wire  1 "u s_axis_0_tvalid $end
   $scope module finn_design_i $end
    $var wire 16 $ MatrixVectorActivation_0_out_V_TDATA [15:0] $end
    $var wire  1 "< MatrixVectorActivation_0_out_V_TREADY $end
    $var wire  1 % MatrixVectorActivation_0_out_V_TVALID $end
    $var wire 1728 & StreamingFIFO_0_out_V_TDATA [1727:0] $end
    $var wire  1 \ StreamingFIFO_0_out_V_TREADY $end
    $var wire  1 ] StreamingFIFO_0_out_V_TVALID $end
    $var wire  1 "9 ap_clk $end
    $var wire  1 "9 ap_clk_0_1 $end
    $var wire  1 ": ap_rst_n $end
    $var wire  1 ": ap_rst_n_0_1 $end
    $var wire 1728 "> in0_V_0_1_TDATA [1727:0] $end
    $var wire  1 ^ in0_V_0_1_TREADY $end
    $var wire  1 "u in0_V_0_1_TVALID $end
    $var wire 16 "; m_axis_0_tdata [15:0] $end
    $var wire  1 "< m_axis_0_tready $end
    $var wire  1 "= m_axis_0_tvalid $end
    $var wire 1728 "> s_axis_0_tdata [1727:0] $end
    $var wire  1 "t s_axis_0_tready $end
    $var wire  1 "u s_axis_0_tvalid $end
    $scope module MatrixVectorActivation_0 $end
     $var wire 16 $ MatrixVectorActivation_0_out_V_TDATA [15:0] $end
     $var wire  1 "< MatrixVectorActivation_0_out_V_TREADY $end
     $var wire  1 % MatrixVectorActivation_0_out_V_TVALID $end
     $var wire 1728 _ MatrixVectorActivation_0_wstrm_m_axis_0_TDATA [1727:0] $end
     $var wire  1 "7 MatrixVectorActivation_0_wstrm_m_axis_0_TREADY $end
     $var wire  1 # MatrixVectorActivation_0_wstrm_m_axis_0_TVALID $end
     $var wire  1 "9 ap_clk $end
     $var wire  1 "9 ap_clk_1 $end
     $var wire  1 ": ap_rst_n $end
     $var wire  1 ": ap_rst_n_1 $end
     $var wire 1728 & in0_V_1_TDATA [1727:0] $end
     $var wire  1 \ in0_V_1_TREADY $end
     $var wire  1 ] in0_V_1_TVALID $end
     $var wire 1728 & in0_V_tdata [1727:0] $end
     $var wire  1 \ in0_V_tready $end
     $var wire  1 ] in0_V_tvalid $end
     $var wire 16 $ out_V_tdata [15:0] $end
     $var wire  1 "< out_V_tready $end
     $var wire  1 % out_V_tvalid $end
    $upscope $end
    $scope module StreamingFIFO_0 $end
     $var wire  1 "9 ap_clk $end
     $var wire  1 ": ap_rst_n $end
     $var wire  1 "8 count [0:0] $end
     $var wire 1728 "> in0_V_TDATA [1727:0] $end
     $var wire  1 ^ in0_V_TREADY $end
     $var wire  1 "u in0_V_TVALID $end
     $var wire 1728 & out_V_TDATA [1727:0] $end
     $var wire  1 \ out_V_TREADY $end
     $var wire  1 ] out_V_TVALID $end
    $upscope $end
   $upscope $end
  $upscope $end
 $upscope $end
$enddefinitions $end


#5
1#
b0000000000000000 $
0%
b000000000000000000000000000000000000000000000000000000000000000000000000000000000000000000000000000000000000000000000000000000000000000000000000000000000000000000000000000000000000000000000000000000000000000000000000000000000000000000000000000000000000000000000000000000000000000000000000000000000000000000000000000000000000000000000000000000000000000000000000000000000000000000000000000000000000000000000000000000000000000000000000000000000000000000000000000000000000000000000000000000000000000000000000000000000000000000000000000000000000000000000000000000000000000000000000000000000000000000000000000000000000000000000000000000000000000000000000000000000000000000000000000000000000000000000000000000000000000000000000000000000000000000000000000000000000000000000000000000000000000000000000000000000000000000000000000000000000000000000000000000000000000000000000000000000000000000000000000000000000000000000000000000000000000000000000000000000000000000000000000000000000000000000000000000000000000000000000000000000000000000000000000000000000000000000000000000000000000000000000000000000000000000000000000000000000000000000000000000000000000000000000000000000000000000000000000000000000000000000000000000000000000000000000000000000000000000000000000000000000000000000000000000000000000000000000000000000000000000000000000000000000000000000000000000000000000000000000000000000000000000000000000000000000000000000000000000000000000000000000000000000000000000000000000000000000000000000000000000000000000000000000000000000000000000000000000000000000000000000000000000000000000000000000000000000000000000000000000000000000000000000000000000000000000000000000000000000000000000000000000000000000000000000000000000000000000000000000 &
1\
0]
1^
b001110011001011010001001001000110110110011010001000110010000010001111011111110010001110010110011101111111010000111011000010001000010110000011010000010010010001110111101101000001001000111001111111000011010111001000101110010011111111011111001000011001001010010010001110110000010101011000110111010110010101011001011001001000001001001110001111110010110111000110001000101111001110111010111010001010111111001001111010000010001010001001101110000001000110110010001000111001110111001000110000110001110011110000010001110010101111110110010110000001111111111011011001000000010010101001001011101110111110011000111001110001010000001000010110110000010010111111000111001001110010001110000011000111000110010000001101001000000110101110111111011010000111010010010101110110101110110001001111011010001110000001111000110111001010111110101011101001010000000111000000101010010000001101111001111101000010111011000001000110011000001110010000010010010000111001010111010101001011000110000001111000010011001000010000011101000111000111000111011011010000111110101111111101111110000000001010111001111010011000010110000101111000011111111111010101000101001011000000001000110010010010110011110000000110110010010010101111111001001111110101011111110111111101101111000000111111110010011001110001010110010000111111111110010110000111001011010010111011000000101011001010111001001010110111000111001111001110111001011010001001111010010101000110111111011010111010000010010000111001010000010000010011010111101110111010000010111110010010000101111111110101111111001111110111000110000011010000111000000011000110011001011101001111110000111111110111010000111111110111101000010111010010111010111010010010000111010111000111001001110111010001010110000001110111000111001110010001010 _
1"7
b0 "8
1"9
1":
b0000000000000000 ";
0"<
0"=
b000000000000000000000000000000000000000000000000000000000000000000000000000000000000000000000000000000000000000000000000000000000000000000000000000000000000000000000000000000000000000000000000000000000000000000000000000000000000000000000000000000000000000000000000000000000000000000000000000000000000000000000000000000000000000000000000000000000000000000000000000000000000000000000000000000000000000000000000000000000000000000000000000000000000000000000000000000000000000000000000000000000000000000000000000000000000000000000000000000000000000000000000000000000000000000000000000000000000000000000000000000000000000000000000000000000000000000000000000000000000000000000000000000000000000000000000000000000000000000000000000000000000000000000000000000000000000000000000000000000000000000000000000000000000000000000000000000000000000000000000000000000000000000000000000000000000000000000000000000000000000000000000000000000000000000000000000000000000000000000000000000000000000000000000000000000000000000000000000000000000000000000000000000000000000000000000000000000000000000000000000000000000000000000000000000000000000000000000000000000000000000000000000000000000000000000000000000000000000000000000000000000000000000000000000000000000000000000000000000000000000000000000000000000000000000000000000000000000000000000000000000000000000000000000000000000000000000000000000000000000000000000000000000000000000000000000000000000000000000000000000000000000000000000000000000000000000000000000000000000000000000000000000000000000000000000000000000000000000000000000000000000000000000000000000000000000000000000000000000000000000000000000000000000000000000000000000000000000000000000000000000000000000000000000000000000000000000000000 ">
1"t
0"u
#10
#15
#20
#25
1"<
b010110000101001010011110011101111011001000100101001111110111101101101100111001000010000100110001011110010110101010000111110100001110000011010010000100001010011101000011011110111010001011111001000001000110001111111001000111000001100110101000010000010101110000000010000000001111001111100000001111110001010001110001000010101001011010101001111001111010110000101110111000110011011110111110100100001110001011110001010110000101010001011101011001110000011011000110100111101110110010110111000001001000110000100001101000110101101100100011011001011111110111100101110110001001001010011010110010010001100001001101011011100110001000110011110110011001011001000011011100001000010111100011001100111001011000100100001001011000010110100100011001111011011110010000101101001001001100111111001111010110001000011111100000001101111111001001100001000011111011001111001011000011000010000101110111011110000011011011010111110111110001011011101001011001000011100100100111010110101000100010100101110110111100101110000010001111010011100011000011001011111011011111011111101010010001101100001010101101001011100111011010111010110101011001000010111100000101001111110101100111001010101000110010101000101101011010001001100000000111000001000111111011100001111010010001001101111101110001001110001011011010110110101001000110111111100111000100010111011001000000011110011001000000101101100101011001111001110101101001010100010100001010100111001101111110010011011011011000110101011111101010000111001000100111001110011110101101000000110011111001000011101100011111100010001000110110001110010010111000111001000110110100111001111101110111000001110111000001100100011001010101001101101101101110010111100110110001100101110000101001101111011000100111110000000011111000100011001001 ">
1"u
#30
#35
b010110000101001010011110011101111011001000100101001111110111101101101100111001000010000100110001011110010110101010000111110100001110000011010010000100001010011101000011011110111010001011111001000001000110001111111001000111000001100110101000010000010101110000000010000000001111001111100000001111110001010001110001000010101001011010101001111001111010110000101110111000110011011110111110100100001110001011110001010110000101010001011101011001110000011011000110100111101110110010110111000001001000110000100001101000110101101100100011011001011111110111100101110110001001001010011010110010010001100001001101011011100110001000110011110110011001011001000011011100001000010111100011001100111001011000100100001001011000010110100100011001111011011110010000101101001001001100111111001111010110001000011111100000001101111111001001100001000011111011001111001011000011000010000101110111011110000011011011010111110111110001011011101001011001000011100100100111010110101000100010100101110110111100101110000010001111010011100011000011001011111011011111011111101010010001101100001010101101001011100111011010111010110101011001000010111100000101001111110101100111001010101000110010101000101101011010001001100000000111000001000111111011100001111010010001001101111101110001001110001011011010110110101001000110111111100111000100010111011001000000011110011001000000101101100101011001111001110101101001010100010100001010100111001101111110010011011011011000110101011111101010000111001000100111001110011110101101000000110011111001000011101100011111100010001000110110001110010010111000111001000110110100111001111101110111000001110111000001100100011001010101001101101101101110010111100110110001100101110000101001101111011000100111110000000011111000100011001001 &
1]
b011010101000111001000000010001000000001110000110001001110001001111110000010000110011001011001101001111000101111111001010110111001010001011010000110111110010010110111110111001000111101010111001000010010011010110000000111000010000000111010010110010001001001010110111010001001000111001101101010001001111110111001110010001001110111001010001011110110011000111010111001010010010110110110111010011011111010101011110001000011001110110010110001010110001111111001001110001000111001001111101101111011010000101001000010010001001001101111111011110001110010111111011001111001001111010010101110111110110001110011001111000101101010101110101110000111101110110000010010011000110110110000000011010010010010000111010010101111110110101110110000001101111111101001101000000000010001010001110101000001000001001111110111000000000101000011111110101111001010010011001010101010111110001111111011000011000010001001111110110111101001000110001110111110111000111111001001010110010110000110000000001000001110010000010111111000111001110001011001010110001001001000110110110010111110000101001101111000000000011110111001011111010110000111001101110110010001111110001111011110001000101110011000011000110110010011001000000101111011110000110010111111000110010110011110000001001110010001010010111011010010010010000111001000001001111010001000001101101000001001110110111001001011001110110010011110001110001111000011001001000001001000110010111010010111111010111110111000110001111111110010010010111001001001001111000000000000010001101010110111111010010011010000110110111000110000011110010000011111001000000101011110111111000110001010110111111000010011111010010111011011110001000001001010010011001010000110011101111001101111001000101111001110001010001010111111111101111110000 _
b1 "8
0"9
b000000000000000000000000000000000000000000000000000000000000000000000000000000000000000000000000000000000000000000000000000000000000000000000000000000000000000000000000000000000000000000000000000000000000000000000000000000000000000000000000000000000000000000000000000000000000000000000000000000000000000000000000000000000000000000000000000000000000000000000000000000000000000000000000000000000000000000000000000000000000000000000000000000000000000000000000000000000000000000000000000000000000000000000000000000000000000000000000000000000000000000000000000000000000000000000000000000000000000000000000000000000000000000000000000000000000000000000000000000000000000000000000000000000000000000000000000000000000000000000000000000000000000000000000000000000000000000000000000000000000000000000000000000000000000000000000000000000000000000000000000000000000000000000000000000000000000000000000000000000000000000000000000000000000000000000000000000000000000000000000000000000000000000000000000000000000000000000000000000000000000000000000000000000000000000000000000000000000000000000000000000000000000000000000000000000000000000000000000000000000000000000000000000000000000000000000000000000000000000000000000000000000000000000000000000000000000000000000000000000000000000000000000000000000000000000000000000000000000000000000000000000000000000000000000000000000000000000000000000000000000000000000000000000000000000000000000000000000000000000000000000000000000000000000000000000000000000000000000000000000000000000000000000000000000000000000000000000000000000000000000000000000000000000000000000000000000000000000000000000000000000000000000000000000000000000000000000000000000000000000000000000000000000000000000000000000000000000000 ">
0"u
#40
#45
1"9
#50
#55
0]
b010011001010010000111110010001111001001110001110110000010001010111111010010001111000111010101011000111010000000000110001000101011111001001111001000110001011110111010011111101110110111000101110110001011010011001001011001111111111001010110111000000001010110010000110110110001111111110111110001010010111110110101001000000000101111110110000010000010001000111010110010110010101000011111010110111000111111000001010010101010000010111101010010011011010001111010001111110110101001111000011101000111110001001111001001001101001001011001111010000101110110111111011010010111111010000111000010111000111001010101010010000010000101110000010101011001111001110010110111111011001001000111111000000010111110011010101001010111001111010000000111001111110110110101001001111001001010011001101010111001011011111010000010111111110010110001010001001011101101110111111111010000000011010001110101010001000000001111010010001001010001000101011111110110011001001000010111001000000010110110101110010101001000000101011111111110111101111101010001111010110110010010010010110011001000110110111001001010101111001010001000101000110010010110110001001001111000010101000010001001110000101111010001111111011101001101010011111111001010111111001001010011010010110000111011110111110110110010110000101001001111001000001111000001110000101010110010001001101110111010110101111010000000101110101011010101010001010010111000110000000111110000101101111011110111101101111011001010111111110000101110010001001001010110001101110010110001000011101111001110111101111011110101101010010011110010010110111110111110111110111110111010001001010111110011111110001110111001110111110000001000101000010000111000110000010001011001000011010001001011110010010111101000101001111111001010000010111011000 _
0"7
b0 "8
0"9
#60
#65
1"9
#70
#75
1"7
0"9
#80
#85
1"9
#90
#95
b001011101001111000010010001110101010111000000110011010011110010111110010000000111111011011001001001110010111000111111111111000001000110111111010111011001011101110110001101011011101111110001000011110111000000010001000011010111001101111111110000010000110011001010111001101111010000011101111101111000101001011001000010101101010110010010111110111111101110000110001110110110011011011001000000011110110010111111110010110000010111110010101010000001111001010111101010001101001111101111111001010000000110101101000000101010110101110111001000101111110000010110010101111111001000000011110010111111001111010010010110110111001110110010111111111000111000000000010011110010110111111010000110001011010001010010110001011010111110110011111011110110010011010001000101110001000111110101010101111001111110110101111010001010011101110010110011001010000010000111011111110110110010010011111111110111010010001001111001110000010110001110111000110010111001110111110000101011010001001000111111111011001010011111010010111101101111111010001001001111111111001001101010001101010110001001000111011111101010110000101011010001000000000111001000011000101010111011111110001000000001010000000001010000010011000000101001000000111000000101000010000110110110001000010000110000000001011101111110010101000001010001101000111111000010010111111111111111010110010110011110000001111110001110001101111111010111110111011000111010101010110101101000111111110000110000111101011111010010000011001001101001001110110110010110010110111010111000101000001111111010001000111010010000001010110111110110000010111010101111110001010001010000011110001001011011001110001101001011001110000011111010000011111111111000010111010111110110111001110110111001001110010110011111101111000000111010000000000 _
0"9
#100
#105
1"9
#110
#115
b011101111111001001010111010110010110001110111111001010110001010001000111011000110000110010011001110101000000110010101111001001101110101000000010011111011110000111110001001000000111000001110000010101010000000001111101111000011001010001101000000010001000011010001111101111111110101110010000001011000111010010000001110110001011110001010011110011001001010111111111111110101111111110000011011111001111010101010000000010000111010101011110001111011111110111111011110111110010000110000010101001111110111001010101001001111111010001000001111000110111110101110010010000000011111101111111001010010010101000000010010110110000000110110010001111000101001111110010001001011001000000000010001000111110110110111000111011010010000111011101010010010010111001010010111010110111101110110111101110000010000000111010000001010011111011001000110011000101010000000110101111110000010001010010000010000001000010000011010010110011110000110001010111011000000010111000110110001000001111111010111010110010111001010110111000001001101010001010010110111011101111101111001011000001001110111111001111001000101001010110000001000010000001111000001001000111110110110000001110110000110111001000101000111101010000010000010010001010110110011101000011010101000000010010110001001001110010101111000111000010111000110011010010111000000001011010111000000001010001000001101111001010101001111000000001011101000110110101011111010110001101111111110110000000101000001000000111001001010010011111010111101011001001011001010001111010101110010110110110111010001010110001111111101101000001011111010000010110110000010101010001010010010001000010111000001110010001010011110001000101000001001001001001010001111000001111001111101001011111000000000000010110111110111000010000001111000110110010 _
0"9
#120
#125
1"9
#130
#135
b110011000000010111111001011110011101000001110000101110010000110101000101111111101011010110010001110111010110101110110010110010111000110111101111110101010110010011111001110110111101111001000011001010000101001010111001011111111111011000011111110011000010111111001111001011111010010101110010001110010111010000110000010010000110110110000111001011001010000001010000110110001001111111000110010101101010011011000110000110110110011010011111001010111011010001111110110011101010000010000000111010010001000000010111010000000111110000011001110001000001111011110000000000000010110011110111001111110101011101001111110000111110101011111000000110001001110011001000111010010111101000001110111001101001001001001000101001010011011010000111111001010011010111110011111000101001111001111000001011111011010010010000010101111001001001001000000111110010001010011001111001110010011010000010011000101111010010110001011000111101101000110110001110111000010010110001001000010110101001001001000101011110110001011000111011011011111001110000000000111110000101010010000000001101000111001111011110010011111111110011101111111001001000110000000010001010110110001111010010110000000110110111111101111001110010010111010111001111001010010111001110000001001000101111111110010001010010000000001111010111111000000000000010011111001001110101011000101011001110101001111111011010010001001111001010010010000111110001010000110011011001101101111001011010101000011111010110001001001000000110011000011001000111101101001000000101001011001000110110001001011010000001111000110110110000010010010000010110000011001110000000110000000010000110110000010111101111000111111010110111110000000000101111000010000101000001011001010000110001110101011011001110110111011110110001111111111001111110 _
0"9
#140
#145
1"9
#150
#155
b0000000000100100 $
1%
b000111110011011001110010000111111000110111010010110010001110010101001001000101010000000111101001110110011011001110101101001010110111101001010010111000000111000000111001010111010000110001000101101111110101010000000000001111000110110001111000000110111111111011111101011110111101110001111010011110001110000111001110110110111001010010001110011011110010111111001001111110010000010000110101000010011110001000011110001101101010011111000000101001111010111110110001010110011111010010110110001010000110001101000001010110111111010000000010010001110101010010001101110111110101111011010000111110001000111001010000111001001111000101001011010110110101101000010111010011011010010101110001010101001110001101111010110000111111001000011000011001110011111111001010010000110110000000110101000110111010000111101001111001010111010000001000010110111010011110111111001000010110111110001000000001110101011000001111010010101010001010010011010111010111110000010000001110011101011010001000110010101000010001001010111110011110010011110110010001111001110110010001111001110101001000001000001110001110111110101011110110101111010011001010010101110010000111000101001110001000011110010001000000111011011110010000110000111001101111001010111111110111001110000001110001001000000010111111111101010001111110010011001001001111111111010011010110111011001001001110110110000000000110010111001111001110110000110110001001111001001011011111110010110110111010000000001111010101010010111011000011111011110011001010001001110111110011110111011010011111000101111001000000011111000111110000111011000110011001111111110000001011000110001001000111111111110011010001110000001110110011011101110010110001001111001001000110010000011011010001000111000000000110111000101001001010111001010000 _
0"9
b0000000000100100 ";
1"=
#160
#165
1"9
#170
#175
b0000000000100010 $
b001010000111001001001011110110010110111111001010000001110001010010001110001010110001001001000110001000111001010101010000001010111001101011110000011000001101001000011101010001010101101111110110000110010011101011011110001110110111010011000000010010000111001111111111111001111110010110110010000010110010110001110011000001000010001001011010101001101111111111111011000000111011001111000000101111110000111111111101001001001001111110110111110011111000001101010111010101110001000000111111001111111001001110010110000000010000111001110111011000011010101011001001010101000101000000110010001110010010001110001000010000110010010110110000111000010001101110001001010011111011011111010010000001110111101000010010111001001000001110110000011001000000000111010111010001000001010001000101010010111001010110000001011110111001101101101110000010111110011000110000010010101000010011001000001111000001000010010110010011111010111000110110011000010110010010111110010000010010000110001110001001000111000110010010010000110110001010000011001001110111001001011111101001011110010001010110000011111111110001101010010000000001111110011001001000011111111000000001010111000000111010011011110010010000110011010001111101111110110000000010001110110000001010111010110001111011000010001011001101000010011111000001111000000111000001001011001001111001011111010101010111110001000001010001110110001111010000111101000001010011101001011010000101111010011010111001001101000000010010000110110110001011111010111110110001111000010110001010110001000000110111011110000110000011010010001011110011111111101111111110001110001110110010001011010010011111010010111001110000000011110001110111011110010011101000110001110110110010000001111001010011010101111001001110001110110000011000110000 _
0"9
b0000000000100010 ";
#180
#185
1"9
#190
#195
b1111111111011010 $
b011111001111110111110000010110111111011000001111011110001010111111110011000000010011110011111110101101001110011110110110000110000111011001010000001001001010010110010001110010001001010001001010001001110010001011011110000010000011010011010000001000101011011110011110111111101000101110111000010001010010010010101001000000111010010010111111000001010011101111111101110011011111110010101000111001111011110110011010111000110101011111000010110000111110110000001010001111111010111010001000111111000111000000111010000111010111001111000110000101110000000011111111010011101001010001111111111101010011110111111001010000111010001011101111101000101010010001000000111010001111010001111110101110110011111000110001110111111111111110011111001011101001111110001001011011110111001000010111011000110010011111111010011000000011110111101000000001000111000001001001110110001000111110110110110000000000010111000110001111001010110111000110101010111001011000010111010000010000000010011010011111101011111000111111101011001110110101001110000011101110011010101010110101111000001000000001010110011001000000111101010001111001001010011010011010110111111101000000111110000110001110110001101001000010110010001111010010001010110001110010111000001001000010111000110010010111000111110111001111101001110001000111110000000001111001111111000011010110111101010111001001000000011001110010010110001110111111110011110011010001001001011110101010111000111010000001010111101000011110000111011110110101110111111010111110101110010101011000010010111111001110110010010000111000001111010110010011001000111011000001101101111001111000010001110010110110010111001001111110111111000111000110011000101000000110011110001101110111001001111101000001111000110001110101001000010011001111111011 _
0"9
b1111111111011010 ";
#200
#205
1"9
#210
#215
b0000000001111101 $
b111001000110110010000110000010101011000001101110000000000001111000111110000111011000011001111001110110000000110001000001001000011111000001111111010110110001001011000110011000011101001001000010001111111001000110000111001001001101010000000111001111111111000010111111011110011101110011000001010110110010101110000110111110000001000111001000110000000101111110000111110111000000001000111010110000001001111101000001000101000111111000110111101000111010010010010111010111010001110011011111111110010101110010001010010111111001011000010010111011101010000110000000111001000010110101001001111110110001001010001000011110110000010001011010110010110111000110001011001010000001011001001010000001101111001011000001000010101000110101001110010111000111000000000101010111010110110110110110001110000101110111110101001110010001110010000111010110000010111010000011010010111010101111011111010110101110010010110111000001010111000000110110110001111111111001000111000110010011011111111001101111010011010111001010000001011010110001110001011110010001011010010001010011001000010000010001101001000111000110001010010111111001000010110011011001110000101011010001101110101110011001010010110110110001000101110010000001001010110000000110101011010000000101010000111111010000110101001000110111001000101000110011010000101111001000011011110101010001111101110000011000001110001111110011000111110010101101110101001001010110010001110111010010111011001101001001011000110000010010000010101110011111101101111110110111110111110000111101110011001000010101110001001010001001101010011011101010010010111000011010001101110000010010010011010111010110110010001111011011110001010110011000110010101110010000011000011101110110000000011000010110010110000000110011111010010001000111001111 _
0"9
b0000000001111101 ";
#220
#225
1"9
#230
#235
b0000000000110001 $
b001011001000001111110010011000111000111000000001111000010111011011110101110000011010110001011010000110010111001101110011111001001001000110001011010001010001011001000011000110010110000010010110001000110110000101010011010000001000111111101110001111000010110010110001111000110111111000010001111110001001000010001010110111011010010000001011000110010101110101000000111101110010001010001010111010010101010000110000101001010101001000011000111111101001010110000101101110000111001011010000111000010010010000000110110111010010000101111111001001010111110000001000110000000110110010010001011101001000010111010011001000011010010010001111010010000010001011111000010011010110110010000110110000111001110001111111001011001111011001000110110001111111110111101001010001101001001010111010110010001101110111001110111010001111101010110101000101110110101110011001110001001111111010010010111010001010111000011110000001101111110110001000111011000000010110110000000001010010001010001000001111001111000111001010010111101000110101111110011001001101001001011001101000001111111010000001111010101111010111010001110110110110001101011110010110001001111110001000011111001101001011000101000110011000010000000001000010000001111011001010010010111111111001111010111111000101001111010000110011010110011000001001010110110110011001110011110111010010110001010001001011110010110010111011000001111110001110010010001001011011000111001010110000001011011110111000000110011110111110010010110001001010010000010001101011010110110111111110000110011011001001110111111010010001110111010011011101001111010110000010010111010001010001000010010110011001000000000001011101000000010010110111010010001010000010101000110111110010111001111010001010010000010011110001110111101110000000000001 _
0"9
b0000000000110001 ";
#240
#245
1"9
#250
#255
b0000000000000010 $
b110000010010000001010001101001011001001111001000110111011111000000010111010111101001010110011111010110011101011000011110101011111110001010000011000111011110101110001110000101111001000110111111111000111101010111001011001110001111101111001110001010010110000011111111011010110111010101011000000111001111000010101111000001110000000010000111111000111001010001111111101110010010000000110110001101000011001110101001011000000000000001101110110110011111000001010000000000110000101101000011111011001101110101101000010111010110111000000110110111001010111010101110000010010110110001010110001001010010110000001110000010011101110101000000111010011101010110111011110110001110010101001000010000000000000001101001110001010111001001110011000111001011000111110010011111110110111011000110001111011000011110010111111010010001010101010111110101010010110110101110111101011111110111101110010111001001000000001000110110000111110111001001000110010110001010000011001000000111001111000101101010010111110001010111010111011010111010000010111110110000111110010001110111101110111110010010000110000111010101101001000001110111001110010111011110111010000101111010101001001101010000011000000101010101110001101010111000110000111001110000111010010001111101000101001111000001011000001000010000001001000000010111000001010111110001101001110110001110111010000000010111101000000101000111000010001000101101010000011001010010110101110001001000010001000101000000001101011101000011010110000000110110001011010101010110101111011111110011110101111101010000010001110000010110110110101110111001101001001110001000010110110001000000110101101111101000010101110010000000111110000011111000000110011000000011110101000000111111110110110101101000110010001010000111000000010010001110010111 _
0"9
b0000000000000010 ";
#260
#265
1"9
#270
#275
b1111111110010010 $
b000010000001010110000000000111010110010001001001110001111001111111111101000110110000110000010001010001101010110000001010010010110111000110111001001101110111110110110000110111110010000010011000010000110111111000001010101011111111000000111111001010111010110000001000000110000010010010011111000001111010000001011010001111010010111001010000010011111000010000110000010110001000111110010010110010101001010001010111010000010001011111110000010111000010010000001001101000011110011111011001010110111110110011101010001001000111111001111000110110111010000111011000001110101000110000010110001110001000111110001000111111001001000010110101111110010110001010000110111000010010101000000011110110010110010000001110001101110111011010001110011010000111001110010001101000001011001000010111110111110110111101001010110110010110010001101111001111010000011111000011111001001110000000000001010011101001111111010110000010101110110001001010001011011000111001000000110001010000000101110110010111111001111011010000011001110111011000001011000010110111001001010011110110010001010000011111010010010111010010000110111011101010001001010101000000110001001000011001101011000111010011001010010001101111001001010111110000000011101101101101110111111010011111001101001001010010111110011010110110001000000110101000101111110111001001111111110111111001000011110010010101101111111111010001000000111001000111011110111000101010110111111101101000011010000110111000001010000000111001101000101110111001000000010001001110010011001010111010011110001000010001110001110101001101010010101010101101110101001010000110001110000111111101101011001101111010010110011111111111111110111000101111000110101000001111010000000110010001000101000010010001001010110011000110001111001000101110111110 _
0"9
b1111111110010010 ";
#280
#285
1"9
#290
#295
b1111111110111010 $
b111000000001001010010110000000011111000110001110111000001001011111010001001010001010110110001001001010011001101001110110000101111011110011011001001110001000000010001010001110000010000010111010111101110010011000011111001110001000001000101111001010111101001101111111101101010111001011001111010111001110111101010111010000000110101001011000110101011010001000111010011101110001111001111110010011001001000101110000111111010010000000110011001010110000001110101010110110101110001010101000110011111111010101001011000111001110010111110000000000001110111110001001000111111001110111010010110111111110110000110010101101001001010011000000110110010000111010000110000101001111011111000101000110001111000110110001110110111011110001011001111110001110001010111010010111000101010000010010110001010111111001000001111010010000101001000010000001010110001001101000111011110110101010110111110011010010111110101110111010110101110000001001111000111111110110001010111010001101111010010001001110000001001000011111000011010010000011010101011111110111110101110001010011011000111000011111010010001111110010000001000111101010010010110111001000001111010001110010110001001111111111011001001110010110000000011001001111010010001000101001010001101010111111001001000001110001001010111110111111001011111000101001010001110000111110001010000000001010110111010011000001001110010111111110011111110000110000000001000111110110001000111110010011010010110001111111111001000110001000111010000101000010111001010111110111011111000000101111011111011111001111010001111000011110101110001110011001001010010011000000011011111000111000101011110010111001010010010011110010010110110000111111011010001000101110010010011000010000111000010000101110111011111111011000101011001001001001010110 _
0"9
b1111111110111010 ";
#300
#305
1"9
#310
#315
b1111111111100100 $
b001000000110111011010010110000101000001110111110111011110111010111000011110111001001101000110110001011110011010001010111110101000001010001010111111000000011010101010101001111001111101111000111101000111111110111010101111011110011010111111001111000010000000101101110010010111111000111000101101001001101110101001111010000010110111101000001010111111000001101011010110111111001111001011010000111000101000101110010010001101011010111010110000010110110010110000000111010111010000010000000011001000110111011111110011010001011111111001010000101111110111001010010010110001001011110111011011110011111000000001001000110001010011010001111110101101110111111101111010000000001110111010000110111111111001001010110000111010001010110110000001111001000000010001110000111110000110110111000101111010011110001011110000101010010001111000001010110011010000111110000111000001111010000000000000111101000000000110001001111001000101101001111011000010010110111110110111000111111101011010111111111111010110110001001000111110111110001101011101010001001010001110001010101111011001110000110000010001110000110110000001010001110001011101010111010011000001111101111001011111000111110010110110111101110011010110000011010000111000111011010000111011011111111001111011010011000110001010010000001010000010001000010111110110001110111000000111001011011010110011000110110110001001011010010111111001001110001111010000111111110010110000000001010010101110010110101010110101111001001010001111011111000010111001001001110110010101000110001000110000001001001110110010000110001000111001000110001110111001001101011111001111110010011010011001101111010111110111001010111010111001110101011101110111111111010000111101111000001111101011011001001010000111001110101001011101111111110011000 _
0"9
b1111111111100100 ";
#320
#325
1"9
#330
#335
b0000000000010001 $
b001000010010110000111101011110110000110101010111101110110110010010110000011010110110111111000000001010111101010010010001010110001001010010000101010001110110010000010000010000111001110000111001000010111110110000011110001010111101001010110110111110101111110000110000111010010101000111101000110110110110010010110000001001011011101000110000101010111110011110000101000011000011000001001101000001000111101111000101000001111000111110111001000110110110001011001010011110111010110000010110001110110101000001010001010010001001110111101111011110000000010101111111010111101101110001110001000010110000010010000010010011110101000110001010101010001011001111101010000101011111111111110001111000111010011110101010001000000101111000110001011010101000001001010101000000000011011010111000000000101000111001001010110011111000001010111000110001111001011110001000001010000001010111111010000000110000001110010011101111000001101010110101010111110000010011011011001001101000110101111010000011111111000011110111110111011000110101110001101000000000000000001001000110010101011111110110000111011010110000111001111110101010000011011000000011101000111111000000011001000010110010001001010000010000110101111000011010011101010010111110101000111011010111010111000010110000011010110001001001110101110011001001110000001000001010011001110101011001110101010110101110001011110001011110111010101011101111010010101101000001110110010000010001011000001111101110101010000010010111000010001010111001010010010101001000000010111111111110000110000001111110110001110010001001101101111001111010111000110001000000000101010110111101001011111110111001011111110001111110110101001110010001011001000001101011000010110111010000111000111000111110111110110111110111110111010010010111010101 _
0"9
b0000000000010001 ";
#340
#345
1"9
#350
