Model/CNN/dataflow_build_dir/output_estimates_only/report/verify_rtlsim.vcd
$version Generated by VerilatedVcd $end
$date Thu Dec 15 03:18:17 2022
 $end
$timescale   1ns $end

 $scope module TOP $end
  $var wire  1 # ap_clk $end
  $var wire  1 $ ap_rst_n $end
  $var wire 16 % m_axis_0_tdata [15:0] $end
  $var wire  1 & m_axis_0_tready $end
  $var wire  1 ' m_axis_0_tvalid $end
  $var wire 1728 ( s_axis_0_tdata [1727:0] $end
  $var wire  1 ^ s_axis_0_tready $end
  $var wire  1 _ s_axis_0_tvalid $end
  $scope module finn_design_wrapper $end
   $var wire  1 # ap_clk $end
   $var wire  1 $ ap_rst_n $end
   $var wire 16 % m_axis_0_tdata [15:0] $end
   $var wire  1 & m_axis_0_tready $end
   $var wire  1 ' m_axis_0_tvalid $end
   $var wire 1728 ( s_axis_0_tdata [1727:0] $end
   $var wire  1 ^ s_axis_0_tready $end
   $var wire  1 _ s_axis_0_tvalid $end
  $upscope $end
 $upscope $end
$enddefinitions $end


#5
1#
1$
b0000000000000000 %
0&
0'
b000000000000000000000000000000000000000000000000000000000000000000000000000000000000000000000000000000000000000000000000000000000000000000000000000000000000000000000000000000000000000000000000000000000000000000000000000000000000000000000000000000000000000000000000000000000000000000000000000000000000000000000000000000000000000000000000000000000000000000000000000000000000000000000000000000000000000000000000000000000000000000000000000000000000000000000000000000000000000000000000000000000000000000000000000000000000000000000000000000000000000000000000000000000000000000000000000000000000000000000000000000000000000000000000000000000000000000000000000000000000000000000000000000000000000000000000000000000000000000000000000000000000000000000000000000000000000000000000000000000000000000000000000000000000000000000000000000000000000000000000000000000000000000000000000000000000000000000000000000000000000000000000000000000000000000000000000000000000000000000000000000000000000000000000000000000000000000000000000000000000000000000000000000000000000000000000000000000000000000000000000000000000000000000000000000000000000000000000000000000000000000000000000000000000000000000000000000000000000000000000000000000000000000000000000000000000000000000000000000000000000000000000000000000000000000000000000000000000000000000000000000000000000000000000000000000000000000000000000000000000000000000000000000000000000000000000000000000000000000000000000000000000000000000000000000000000000000000000000000000000000000000000000000000000000000000000000000000000000000000000000000000000000000000000000000000000000000000000000000000000000000000000000000000000000000000000000000000000000000000000000000000000000000000000000000000000000000000000 (
1^
0_
#10
#15
#20
#25
1&
b000000000000000100011100011000000000011100100011011000100000100000000100011011100100000000000011011011000000000100011000000000000011100100011000000011000011100100011011000000011011011000100000000100000011000000011000100100000100000000100000000011000000000100100100100000100000100000011011000100000100011011100000011000011011100011000100000100011100011000000000100011011011100000000011100100000000011000100011000100100000011011011011100100011011011100000000100011011100000011011000000011100011011011000011011011011000011011000011100000011000100000000011000000000011100000000100011000011100100100100000011011000011011011000100000011011000000000100000000011000011000000011011100000000011011011000100100100100100100011100100011000000000100100100100011000011000000011000100000100000011100100000000100000000011011000100000100000000011011100011000100100100011000100100100011000100100100100100100100100100100011011000100011011011100100011100100100011011011011100000100011000100011000011000011011011011011000000100100011000000000011011011100100100000011011000100000100100000100100011011100100000011100000100011011011011100011100011100000100100000011000000000011100000000000100011000000011011100011000011000100000000100100100000000011000100011100100011000000000011011100000100011011000011000011100100011000100100011000011100100000100100000100000100011011000011011000000100100100011000011100100000011000011100100011100000100000011100100000100011000100011000100011100011000011000000011000100100000100011011100000000100011000011100000100000100100011000100011100011000000000100100100100000000000100000000000011000011100100100000100000000000100011000011100011000000000100100011100100100000000000011100000100100011000100000000000100011000011011 (
1_
#30
#35
0#
b000000000000000000000000000000000000000000000000000000000000000000000000000000000000000000000000000000000000000000000000000000000000000000000000000000000000000000000000000000000000000000000000000000000000000000000000000000000000000000000000000000000000000000000000000000000000000000000000000000000000000000000000000000000000000000000000000000000000000000000000000000000000000000000000000000000000000000000000000000000000000000000000000000000000000000000000000000000000000000000000000000000000000000000000000000000000000000000000000000000000000000000000000000000000000000000000000000000000000000000000000000000000000000000000000000000000000000000000000000000000000000000000000000000000000000000000000000000000000000000000000000000000000000000000000000000000000000000000000000000000000000000000000000000000000000000000000000000000000000000000000000000000000000000000000000000000000000000000000000000000000000000000000000000000000000000000000000000000000000000000000000000000000000000000000000000000000000000000000000000000000000000000000000000000000000000000000000000000000000000000000000000000000000000000000000000000000000000000000000000000000000000000000000000000000000000000000000000000000000000000000000000000000000000000000000000000000000000000000000000000000000000000000000000000000000000000000000000000000000000000000000000000000000000000000000000000000000000000000000000000000000000000000000000000000000000000000000000000000000000000000000000000000000000000000000000000000000000000000000000000000000000000000000000000000000000000000000000000000000000000000000000000000000000000000000000000000000000000000000000000000000000000000000000000000000000000000000000000000000000000000000000000000000000000000000000000000000000000 (
0_
#40
#45
1#
#50
#55
0#
#60
#65
1#
#70
#75
0#
#80
#85
1#
#90
#95
0#
#100
#105
1#
#110
#115
0#
#120
#125
1#
#130
#135
0#
#140
#145
1#
#150
#155
0#
b1111111110110110 %
1'
#160
#165
1#
#170
#175
0#
b0000000001011000 %
#180
#185
1#
#190
#195
0#
b0000000000001101 %
#200
#205
1#
#210
#215
0#
b1111111101011001 %
#220
#225
1#
#230
#235
0#
b0000000010001111 %
#240
#245
1#
#250
#255
0#
b1111111110011110 %
#260
#265
1#
#270
#275
0#
b1111111110110011 %
#280
#285
1#
#290
#295
0#
b0000000000111100 %
#300
#305
1#
#310
#315
0#
b0000000010000011 %
#320
#325
1#
#330
#335
0#
b0000000010011110 %
#340
#345
1#
#350
#355
0#
b0000000000011010 %
#360
#365
1#
#370
#375
0#
b0000000001011010 %
#380
#385
1#
#390
#395
0#
b0000000011101010 %
#400
#405
1#
#410
#415
0#
b1111111101100011 %
#420
#425
1#
#430
#435
0#
b0000000001000111 %
#440
#445
1#
#450
#455
0#
b0000000000000010 %
#460
#465
1#
#470
#475
0#
b1111111111100101 %
#480
#485
1#
#490
#495
0#
b1111111111000010 %
#500
#505
1#
#510
#515
0#
b0000000011001010 %
#520
#525
1#
#530
#535
0#
b0000000010010000 %
#540
#545
1#
#550
#555
0#
b0000000001000011 %
#560
#565
1#
#570
#575
0#
b0000000010010000 %
#580
#585
1#
#590
#595
0#
b1111111110010111 %
#600
#605
1#
#610
#615
0#
b1111111101001010 %
#620
#625
1#
#630
#635
0#
b1111111100110010 %
#640
#645
1#
#650
#655
0#
b1111111111100110 %
#660
#665
1#
#670
#675
0#
b0000000000111101 %
#680
#685
1#
#690
#695
0#
b1111111111001111 %
#700
#705
1#
#710
#715
0#
b0000000000100110 %
#720
#725
1#
#730
#735
0#
b0000000000000110 %
#740
#745
1#
#750
#755
0#
b0000000001111000 %
#760
#765
1#
#770
#775
0#
b0000000000100011 %
#780
#785
1#
#790
#795
0#
b1111111111001010 %
#800
#805
1#
#810
#815
0#
b0000000001000010 %
#820
#825
1#
#830
#835
0#
b1111111110101010 %
#840
#845
1#
#850
#855
0#
b1111111101011011 %
#860
#865
1#
#870
#875
0#
b0000000010000010 %
#880
#885
1#
#890
#895
0#
b0000000011001100 %
#900
#905
1#
#910
#915
0#
b0000000001111100 %
#920
#925
1#
#930
#935
0#
b1111111011001001 %
#940
#945
1#
#950
#955
0#
b1111111111100111 %
#960
#965
1#
#970
#975
0#
b0000000001110101 %
#980
#985
1#
#990
#995
0#
b0000000001010000 %
#1000
#1005
1#
#1010
#1015
0#
b0000000010101011 %
#1020
#1025
1#
#1030
#1035
0#
b1111111011011011 %
#1040
#1045
1#
#1050
#1055
0#
b1111111101101001 %
#1060
#1065
1#
#1070
#1075
0#
b0000000001100011 %
#1080
#1085
1#
#1090
#1095
0#
b1111111101101011 %
#1100
#1105
1#
#1110
#1115
0#
b1111111111111100 %
#1120
#1125
1#
#1130
#1135
0#
b1111111110100100 %
#1140
#1145
1#
#1150
#1155
0#
b0000000011010100 %
#1160
#1165
1#
#1170
#1175
0#
b1111111111101110 %
#1180
#1185
1#
#1190
#1195
0#
b0000000010011011 %
#1200
#1205
1#
#1210
#1215
0#
b0000000000011000 %
#1220
#1225
1#
#1230
#1235
0#
b0000000010110101 %
#1240
#1245
1#
#1250
#1255
0#
b0000000001100010 %
#1260
#1265
1#
#1270
#1275
0#
b0000000010101110 %
#1280
#1285
1#
#1290
#1295
0#
b1111111110100000 %
#1300
#1305
1#
#1310
#1315
0#
b0000000001000000 %
#1320
#1325
1#
#1330
#1335
0#
b0000000000011001 %
#1340
#1345
1#
#1350
#1355
0#
b1111111110100110 %
#1360
#1365
1#
#1370
#1375
0#
b0000000000010010 %
#1380
#1385
1#
#1390
#1395
0#
b1111111110111011 %
#1400
#1405
1#
#1410
#1415
0#
b0000000000001111 %
#1420
#1425
1#
#1430
#1435
0#
b1111111111000110 %
#1440
#1445
1#
#1450
#1455
0#
b0000000001011011 %
#1460
#1465
1#
#1470
#1475
0#
b1111111111010001 %
#1480
#1485
1#
#1490
#1495
0#
b0000000000011100 %
#1500
#1505
1#
#1510
#1515
0#
b1111111110111100 %
#1520
#1525
1#
#1530
#1535
0#
b0000000010010101 %
#1540
#1545
1#
#1550
#1555
0#
b1111111100111110 %
#1560
#1565
1#
#1570
#1575
0#
b0000000000000001 %
#1580
#1585
1#
#1590
#1595
0#
b1111111110111100 %
#1600
#1605
1#
#1610
#1615
0#
b1111111101100111 %
#1620
#1625
1#
#1630
#1635
0#
b0000000001100001 %
#1640
#1645
1#
#1650
#1655
0#
b0000000001001011 %
#1660
#1665
1#
#1670
#1675
0#
b1111111110011000 %
#1680
#1685
1#
#1690
#1695
0#
b1111111101110000 %
#1700
#1705
1#
#1710
#1715
0#
b1111111111110000 %
#1720
#1725
1#
#1730
#1735
0#
b1111111110100101 %
#1740
#1745
1#
#1750
#1755
0#
b0000000001010011 %
#1760
#1765
1#
#1770
#1775
0#
b0000000001110001 %
#1780
#1785
1#
#1790
#1795
0#
b0000000001000000 %
#1800
#1805
1#
#1810
#1815
0#
b0000000000100100 %
#1820
#1825
1#
#1830
#1835
0#
b0000000010000011 %
#1840
#1845
1#
#1850
#1855
0#
b1111111111110011 %
#1860
#1865
1#
#1870
#1875
0#
b0000000000100100 %
#1880
#1885
1#
#1890
#1895
0#
b1111111110101011 %
#1900
#1905
1#
#1910
#1915
0#
b0000000011010101 %
#1920
#1925
1#
#1930
#1935
0#
b1111111100011010 %
#1940
#1945
1#
#1950
#1955
0#
b1111111110011100 %
#1960
#1965
1#
#1970
#1975
0#
b0000000001000000 %
#1980
#1985
1#
#1990
#1995
0#
b0000000000000000 %
#2000
#2005
1#
#2010
#2015
0#
b1111111110011101 %
#2020
#2025
1#
#2030
#2035
0#
b0000000011101001 %
#2040
#2045
1#
#2050
#2055
0#
b0000000000101011 %
#2060
#2065
1#
#2070
#2075
0#
b0000000001100011 %
#2080
#2085
1#
#2090
#2095
0#
b1111111011000000 %
#2100
#2105
1#
#2110
#2115
0#
b1111111110000111 %
#2120
#2125
1#
#2130
#2135
0#
b1111111111000001 %
#2140
#2145
1#
#2150
#2155
0#
b0000000010010111 %
#2160
#2165
1#
#2170
#2175
0#
b0000000001010010 %
#2180
#2185
1#
#2190
#2195
0#
b1111111100111001 %
#2200
#2205
1#
#2210
#2215
0#
b0000000000000011 %
#2220
#2225
1#
#2230
#2235
0#
b1111111111001011 %
#2240
#2245
1#
#2250
#2255
0#
b1111111111011010 %
#2260
#2265
1#
#2270
#2275
0#
b1111111110010010 %
#2280
#2285
1#
#2290
#2295
0#
b1111111110110000 %
#2300
#2305
1#
#2310
#2315
0#
b0000000000001111 %
#2320
#2325
1#
#2330
#2335
0#
b0000000100110101 %
#2340
#2345
1#
#2350
#2355
0#
b1111111110110100 %
#2360
#2365
1#
#2370
#2375
0#
b0000000000101011 %
#2380
#2385
1#
#2390
#2395
0#
b1111111101011100 %
#2400
#2405
1#
#2410
#2415
0#
b1111111111000010 %
#2420
#2425
1#
#2430
#2435
0#
b0000000011001000 %
#2440
#2445
1#
#2450
#2455
0#
b0000000001110110 %
#2460
#2465
1#
#2470
#2475
0#
b1111111010010000 %
#2480
#2485
1#
#2490
#2495
0#
b0000000001001100 %
#2500
#2505
1#
#2510
#2515
0#
b1111111101001101 %
#2520
#2525
1#
#2530
#2535
0#
b0000000000110110 %
#2540
#2545
1#
#2550
#2555
0#
b1111111110110001 %
#2560
#2565
1#
#2570
#2575
0#
b0000000001000111 %
#2580
#2585
1#
#2590
#2595
0#
b0000000000001000 %
#2600
#2605
1#
#2610
#2615
0#
b1111111101101000 %
#2620
#2625
1#
#2630
#2635
0#
b1111111111101110 %
#2640
#2645
1#
#2650
#2655
0#
b1111111111110011 %
#2660
#2665
1#
#2670
#2675
0#
b0000000001000110 %
#2680
#2685
1#
#2690
#2695
0#
b1111111111111111 %
#2700
#2705
1#
#2710
#2715
0#
b1111111110111111 %
#2720
#2725
1#
#2730
#2735
0#
b1111111110010101 %
#2740
#2745
1#
#2750
#2755
0#
b1111111100000111 %
#2760
#2765
1#
#2770
#2775
0#
b0000000001011100 %
#2780
#2785
1#
#2790
#2795
0#
b0000000011011011 %
#2800
#2805
1#
#2810
#2815
0#
b1111111110101101 %
#2820
#2825
1#
#2830
#2835
0#
b0000000001111110 %
#2840
#2845
1#
#2850
#2855
0#
b1111111110111101 %
#2860
#2865
1#
#2870
#2875
0#
b1111111111111010 %
#2880
#2885
1#
#2890
#2895
0#
b1111111110101111 %
#2900
#2905
1#
#2910
#2915
0#
b1111111011100101 %
#2920
#2925
1#
#2930
#2935
0#
b1111111111111110 %
#2940
#2945
1#
#2950
#2955
0#
b1111111111110001 %
#2960
#2965
1#
#2970
#2975
0#
b0000000011010000 %
#2980
#2985
1#
#2990
#2995
0#
b1111111110111111 %
#3000
#3005
1#
#3010
#3015
0#
b1111111111100100 %
#3020
#3025
1#
#3030
#3035
0#
b1111111110111100 %
#3040
#3045
1#
#3050
#3055
0#
b1111111110111011 %
#3060
#3065
1#
#3070
#3075
0#
b1111111111011010 %
#3080
#3085
1#
#3090
#3095
0#
b1111111101000000 %
#3100
#3105
1#
#3110
#3115
0#
b1111111111001011 %
#3120
#3125
1#
#3130
#3135
0#
b1111111111011101 %
#3140
#3145
1#
#3150
#3155
0#
b0000000001000010 %
#3160
#3165
1#
#3170
#3175
0#
b1111111110101111 %
#3180
#3185
1#
#3190
#3195
0#
b1111111010111110 %
#3200
#3205
1#
#3210
#3215
0#
b0000000011010101 %
#3220
#3225
1#
#3230
#3235
0#
b1111111100100010 %
#3240
#3245
1#
#3250
#3255
0#
b1111111111111111 %
#3260
#3265
1#
#3270
#3275
0#
b0000000001011001 %
#3280
#3285
1#
#3290
#3295
0#
b1111111111010111 %
#3300
#3305
1#
#3310
#3315
0#
b0000000001111110 %
#3320
#3325
1#
#3330
#3335
0#
b0000000001101011 %
#3340
#3345
1#
#3350
#3355
0#
b1111111111101011 %
#3360
#3365
1#
#3370
#3375
0#
b0000000000111111 %
#3380
#3385
1#
#3390
#3395
0#
b0000000000100011 %
#3400
#3405
1#
#3410
#3415
0#
b0000000001000111 %
#3420
#3425
1#
#3430
#3435
0#
b0000000001010001 %
#3440
#3445
1#
#3450
#3455
0#
b0000000000000101 %
#3460
#3465
1#
#3470
#3475
0#
b0000000000000100 %
#3480
#3485
1#
#3490
#3495
0#
b0000000100010100 %
#3500
#3505
1#
#3510
#3515
0#
b0000000000010100 %
#3520
#3525
1#
#3530
#3535
0#
b0000000000010011 %
#3540
#3545
1#
#3550
#3555
0#
b1111111111011000 %
#3560
#3565
1#
#3570
#3575
0#
b0000000000000011 %
#3580
#3585
1#
#3590
#3595
0#
b1111111111010000 %
#3600
#3605
1#
#3610
#3615
0#
b1111111100011000 %
#3620
#3625
1#
#3630
#3635
0#
b1111111110100110 %
#3640
#3645
1#
#3650
#3655
0#
b1111111111100110 %
#3660
#3665
1#
#3670
#3675
0#
b1111111111001101 %
#3680
#3685
1#
#3690
#3695
0#
b0000000010110101 %
#3700
#3705
1#
#3710
#3715
0#
b0000000000000110 %
#3720
#3725
1#
#3730
#3735
0#
b1111111101100111 %
#3740
#3745
1#
#3750
#3755
0#
b0000000001101000 %
#3760
#3765
1#
#3770
#3775
0#
b0000000000001010 %
#3780
#3785
1#
#3790
#3795
0#
b0000000001101011 %
#3800
#3805
1#
#3810
#3815
0#
b1111111101010100 %
#3820
#3825
1#
#3830
#3835
0#
b0000000100000111 %
#3840
#3845
1#
#3850
#3855
0#
b0000000001000001 %
#3860
#3865
1#
#3870
#3875
0#
b1111111110110110 %
#3880
#3885
1#
#3890
#3895
0#
b1111111110010001 %
#3900
#3905
1#
#3910
#3915
0#
b1111111111111000 %
#3920
#3925
1#
#3930
#3935
0#
b0000000000010011 %
#3940
#3945
1#
#3950
#3955
0#
b1111111111101101 %
#3960
#3965
1#
#3970
#3975
0#
b1111111111000110 %
#3980
#3985
1#
#3990
#3995
0#
b1111111111000000 %
#4000
#4005
1#
#4010
#4015
0#
b1111111111000011 %
#4020
#4025
1#
#4030
#4035
0#
b1111111110110101 %
#4040
#4045
1#
#4050
#4055
0#
b0000000001010000 %
#4060
#4065
1#
#4070
#4075
0#
b1111111111000001 %
#4080
#4085
1#
#4090
#4095
0#
b1111111111010000 %
#4100
#4105
1#
#4110
#4115
0#
b1111111110100111 %
#4120
#4125
1#
#4130
#4135
0#
b1111111101101100 %
#4140
#4145
1#
#4150
#4155
0#
b1111111110101111 %
#4160
#4165
1#
#4170
#4175
0#
b1111111111001000 %
#4180
#4185
1#
#4190
#4195
0#
b1111111100111110 %
#4200
#4205
1#
#4210
#4215
0#
b0000000000010010 %
#4220
#4225
1#
#4230
#4235
0#
b0000000000011011 %
#4240
#4245
1#
#4250
#4255
0#
b1111111111101100 %
#4260
#4265
1#
#4270
#4275
0#
b1111111110011001 %
#4280
#4285
1#
#4290
#4295
0#
b0000000100001100 %
#4300
#4305
1#
#4310
#4315
0#
b0000000000101100 %
#4320
#4325
1#
#4330
#4335
0#
b1111111110001011 %
#4340
#4345
1#
#4350
#4355
0#
b0000000011100101 %
#4360
#4365
1#
#4370
#4375
0#
b0000000010001101 %
#4380
#4385
1#
#4390
#4395
0#
b1111111110100100 %
#4400
#4405
1#
#4410
#4415
0#
b1111111110100010 %
#4420
#4425
1#
#4430
#4435
0#
b0000000010101011 %
#4440
#4445
1#
#4450
#4455
0#
b1111111110010111 %
#4460
#4465
1#
#4470
#4475
0#
b1111111111110010 %
#4480
#4485
1#
#4490
#4495
0#
b0000000011001000 %
#4500
#4505
1#
#4510
#4515
0#
b0000000000100110 %
#4520
#4525
1#
#4530
#4535
0#
b0000000000101100 %
#4540
#4545
1#
#4550
#4555
0#
b0000000010111011 %
#4560
#4565
1#
#4570
#4575
0#
b1111111100111100 %
#4580
#4585
1#
#4590
#4595
0#
b0000000000011111 %
#4600
#4605
1#
#4610
#4615
0#
b0000000010100110 %
#4620
#4625
1#
#4630
#4635
0#
b0000000000011001 %
#4640
#4645
1#
#4650
#4655
0#
b0000000000110000 %
#4660
#4665
1#
#4670
#4675
0#
b1111111111010000 %
#4680
#4685
1#
#4690
#4695
0#
b1111111100100110 %
#4700
#4705
1#
#4710
#4715
0#
b0000000011000100 %
#4720
#4725
1#
#4730
#4735
0#
b1111111111111011 %
#4740
#4745
1#
#4750
#4755
0#
b0000000000110001 %
#4760
#4765
1#
#4770
#4775
0#
b0000000011100010 %
#4780
#4785
1#
#4790
#4795
0#
b0000000010110111 %
#4800
#4805
1#
#4810
#4815
0#
b0000000001111111 %
#4820
#4825
1#
#4830
#4835
0#
b1111111110010001 %
#4840
#4845
1#
#4850
#4855
0#
b1111111010101011 %
#4860
#4865
1#
#4870
#4875
0#
b1111111100100110 %
#4880
#4885
1#
#4890
#4895
0#
b1111111110001101 %
#4900
#4905
1#
#4910
#4915
0#
b0000000000000101 %
#4920
#4925
1#
#4930
#4935
0#
b1111111100001000 %
#4940
#4945
1#
#4950
#4955
0#
b0000000000101011 %
#4960
#4965
1#
#4970
#4975
0#
b1111111101111001 %
#4980
#4985
1#
#4990
#4995
0#
b0000000001011111 %
#5000
#5005
1#
#5010
#5015
0#
b0000000000101001 %
#5020
#5025
1#
#5030
#5035
0#
b0000000000011011 %
#5040
#5045
1#
#5050
#5055
0#
b1111111110010110 %
#5060
#5065
1#
#5070
#5075
0#
b0000000001011010 %
#5080
#5085
1#
#5090
#5095
0#
b1111111111001101 %
#5100
#5105
1#
#5110
#5115
0#
b1111111111101010 %
#5120
#5125
1#
#5130
#5135
0#
b1111111110100010 %
#5140
#5145
1#
#5150
#5155
0#
b0000000000010010 %
#5160
#5165
1#
#5170
#5175
0#
b1111111101100111 %
#5180
#5185
1#
#5190
#5195
0#
b1111111101111100 %
#5200
#5205
1#
#5210
#5215
0#
b0000000000101001 %
#5220
#5225
1#
#5230
#5235
0#
b0000000001000101 %
#5240
#5245
1#
#5250
#5255
0#
b0000000010010000 %
#5260
#5265
1#
#5270
#5275
0#
b1111111100101110 %
#5280
#5285
1#
#5290
#5295
0#
b0000000000010111 %
#5300
#5305
1#
#5310
#5315
0#
b0000000011101101 %
#5320
#5325
1#
#5330
#5335
0#
b1111111111101111 %
#5340
#5345
1#
#5350
#5355
0#
b1111111111011110 %
#5360
#5365
1#
#5370
#5375
0#
b1111111110101100 %
#5380
#5385
1#
#5390
#5395
0#
b1111111111010100 %
#5400
#5405
1#
#5410
#5415
0#
b0000000100000001 %
#5420
#5425
1#
#5430
#5435
0#
b1111111100110111 %
#5440
#5445
1#
#5450
#5455
0#
b1111111111001000 %
#5460
#5465
1#
#5470
#5475
0#
b1111111111111110 %
#5480
#5485
1#
#5490
#5495
0#
b1111111101100011 %
#5500
#5505
1#
#5510
#5515
0#
b0000000000010110 %
#5520
#5525
1#
#5530
#5535
0#
b0000000000001111 %
#5540
#5545
1#
#5550
#5555
0#
b1111111111111011 %
#5560
#5565
1#
#5570
#5575
0#
b0000000011001101 %
#5580
#5585
1#
#5590
#5595
0#
b1111111101111100 %
#5600
#5605
1#
#5610
#5615
0#
b0000000001100010 %
#5620
#5625
1#
#5630
#5635
0#
b0000000000100011 %
#5640
#5645
1#
#5650
#5655
0#
b1111111111101100 %
#5660
#5665
1#
#5670
#5675
0#
b0000000000010110 %
#5680
#5685
1#
#5690
#5695
0#
b1111111101100101 %
#5700
#5705
1#
#5710
#5715
0#
b1111111111100000 %
#5720
#5725
1#
#5730
#5735
0#
b1111111111011010 %
#5740
#5745
1#
#5750
#5755
0#
b1111111111100110 %
#5760
#5765
1#
#5770
#5775
0#
b0000000001001111 %
#5780
#5785
1#
#5790
#5795
0#
b1111111101001010 %
#5800
#5805
1#
#5810
#5815
0#
b1111111110111010 %
#5820
#5825
1#
#5830
#5835
0#
b1111111111110111 %
#5840
#5845
1#
#5850
#5855
0#
b0000000000011011 %
#5860
#5865
1#
#5870
#5875
0#
b0000000000111110 %
#5880
#5885
1#
#5890
#5895
0#
b1111111110011100 %
#5900
#5905
1#
#5910
#5915
0#
b1111111111001001 %
#5920
#5925
1#
#5930
#5935
0#
b0000000000000011 %
#5940
#5945
1#
#5950
#5955
0#
b0000000000011011 %
#5960
#5965
1#
#5970
#5975
0#
b0000000011010000 %
#5980
#5985
1#
#5990
#5995
0#
b1111111101110110 %
#6000
#6005
1#
#6010
#6015
0#
b0000000001001001 %
#6020
#6025
1#
#6030
#6035
0#
b0000000000010010 %
#6040
#6045
1#
#6050
#6055
0#
b0000000000100100 %
#6060
#6065
1#
#6070
#6075
0#
b0000000001101001 %
#6080
#6085
1#
#6090
#6095
0#
b1111111011101101 %
#6100
#6105
1#
#6110
#6115
0#
b0000000000100100 %
#6120
#6125
1#
#6130
#6135
0#
b0000000000010000 %
#6140
#6145
1#
#6150
#6155
0#
b1111111111101000 %
#6160
#6165
1#
#6170
#6175
0#
b0000000010111100 %
#6180
#6185
1#
#6190
#6195
0#
b0000000001110110 %
#6200
#6205
1#
#6210
#6215
0#
b1111111110011010 %
#6220
#6225
1#
#6230
#6235
0#
b0000000000110101 %
#6240
#6245
1#
#6250
#6255
0#
b1111111110100110 %
#6260
#6265
1#
#6270
#6275
0#
b1111111101001100 %
#6280
#6285
1#
#6290
#6295
0#
b1111111101101001 %
#6300
#6305
1#
#6310
#6315
0#
b1111111111011111 %
#6320
#6325
1#
#6330
#6335
0#
b1111111110110110 %
#6340
#6345
1#
#6350
#6355
0#
b0000000000010100 %
#6360
#6365
1#
#6370
#6375
0#
b0000000010011101 %
#6380
#6385
1#
#6390
#6395
0#
b0000000000111101 %
#6400
#6405
1#
#6410
#6415
0#
b0000000110010110 %
#6420
#6425
1#
#6430
#6435
0#
b1111111111001001 %
#6440
#6445
1#
#6450
#6455
0#
b1111111110011110 %
#6460
#6465
1#
#6470
#6475
0#
b1111111111000011 %
#6480
#6485
1#
#6490
#6495
0#
b0000000000111011 %
#6500
#6505
1#
#6510
#6515
0#
b1111111110110110 %
#6520
#6525
1#
#6530
#6535
0#
b1111111111010011 %
#6540
#6545
1#
#6550
#6555
0#
b0000000000100000 %
#6560
#6565
1#
#6570
#6575
0#
b1111111110111101 %
#6580
#6585
1#
#6590
#6595
0#
b0000000001000111 %
#6600
#6605
1#
#6610
#6615
0#
b0000000000100101 %
#6620
#6625
1#
#6630
#6635
0#
b1111111111101011 %
#6640
#6645
1#
#6650
#6655
0#
b0000000000001101 %
#6660
#6665
1#
#6670
#6675
0#
b1111111110100101 %
#6680
#6685
1#
#6690
#6695
0#
b1111111110101110 %
#6700
#6705
1#
#6710
#6715
0#
b0000000011100100 %
#6720
#6725
1#
#6730
#6735
0#
b0000000000000010 %
#6740
#6745
1#
#6750
#6755
0#
b0000000100000000 %
#6760
#6765
1#
#6770
#6775
0#
b1111111110000100 %
#6780
#6785
1#
#6790
#6795
0#
b1111111011110110 %
#6800
#6805
1#
#6810
#6815
0#
b1111111011011101 %
#6820
#6825
1#
#6830
#6835
0#
b1111111110000001 %
#6840
#6845
1#
#6850
#6855
0#
b1111111110011110 %
#6860
#6865
1#
#6870
#6875
0#
b1111111111000110 %
#6880
#6885
1#
#6890
#6895
0#
b1111111111000001 %
#6900
#6905
1#
#6910
#6915
0#
b0000000011111110 %
#6920
#6925
1#
#6930
#6935
0#
b0000000000101111 %
#6940
#6945
1#
#6950
#6955
0#
b0000000001100101 %
#6960
#6965
1#
#6970
#6975
0#
b0000000100101101 %
#6980
#6985
1#
#6990
#6995
0#
b1111111101111001 %
#7000
#7005
1#
#7010
#7015
0#
b1111111111011010 %
#7020
#7025
1#
#7030
#7035
0#
b0000000000000001 %
#7040
#7045
1#
#7050
#7055
0#
b0000000000111111 %
#7060
#7065
1#
#7070
#7075
0#
b1111111111100000 %
#7080
#7085
1#
#7090
#7095
0#
b0000000000010110 %
#7100
#7105
1#
#7110
#7115
0#
b1111111110010001 %
#7120
#7125
1#
#7130
#7135
0#
b0000000011101101 %
#7140
#7145
1#
#7150
#7155
0#
b1111111111111111 %
#7160
#7165
1#
#7170
#7175
0#
b0000000000010100 %
#7180
#7185
1#
#7190
#7195
0#
b1111111110110010 %
#7200
#7205
1#
#7210
#7215
0#
b1111111111010110 %
#7220
#7225
1#
#7230
#7235
0#
b1111111110001001 %
#7240
#7245
1#
#7250
#7255
0#
b0000000000011111 %
#7260
#7265
1#
#7270
#7275
0#
b0000000000001010 %
#7280
#7285
1#
#7290
#7295
0#
b0000000000110111 %
#7300
#7305
1#
#7310
#7315
0#
b1111111110101111 %
#7320
#7325
1#
#7330
#7335
0#
b1111111111101011 %
#7340
#7345
1#
#7350
#7355
0#
b1111111111100010 %
#7360
#7365
1#
#7370
#7375
0#
b1111111111110110 %
#7380
#7385
1#
#7390
#7395
0#
b0000000000100110 %
#7400
#7405
1#
#7410
#7415
0#
b1111111111100000 %
#7420
#7425
1#
#7430
#7435
0#
b0000000010001000 %
#7440
#7445
1#
#7450
#7455
0#
b1111111011110000 %
#7460
#7465
1#
#7470
#7475
0#
b1111111111011110 %
#7480
#7485
1#
#7490
#7495
0#
b1111111110010011 %
#7500
#7505
1#
#7510
#7515
0#
b1111111011000101 %
#7520
#7525
1#
#7530
#7535
0#
b0000000010001100 %
#7540
#7545
1#
#7550
#7555
0#
b0000000001101010 %
#7560
#7565
1#
#7570
#7575
0#
b0000000001100000 %
#7580
#7585
1#
#7590
#7595
0#
b1111111111101010 %
#7600
#7605
1#
#7610
#7615
0#
b0000000000001111 %
#7620
#7625
1#
#7630
#7635
0#
b1111111111010000 %
#7640
#7645
1#
#7650
#7655
0#
b0000000001010011 %
#7660
#7665
1#
#7670
#7675
0#
b1111111101000011 %
#7680
#7685
1#
#7690
#7695
0#
b1111111111000110 %
#7700
#7705
1#
#7710
#7715
0#
b1111111110000001 %
#7720
#7725
1#
#7730
#7735
0#
b1111111100101000 %
#7740
#7745
1#
#7750
#7755
0#
b1111111101111101 %
#7760
#7765
1#
#7770
#7775
0#
b1111111100110110 %
#7780
#7785
1#
#7790
#7795
0#
b1111111100111100 %
#7800
#7805
1#
#7810
#7815
0#
b1111111111001111 %
#7820
#7825
1#
#7830
#7835
0#
b1111111101001011 %
#7840
#7845
1#
#7850
#7855
0#
b0000000000001000 %
#7860
#7865
1#
#7870
#7875
0#
b0000000011000000 %
#7880
#7885
1#
#7890
#7895
0#
b1111111100100001 %
#7900
#7905
1#
#7910
#7915
0#
b1111111111010110 %
#7920
#7925
1#
#7930
#7935
0#
b0000000000101000 %
#7940
#7945
1#
#7950
#7955
0#
b1111111110100110 %
#7960
#7965
1#
#7970
#7975
0#
b0000000000001110 %
#7980
#7985
1#
#7990
#7995
0#
b1111111101111110 %
#8000
#8005
1#
#8010
#8015
0#
b0000000001100110 %
#8020
#8025
1#
#8030
#8035
0#
b0000000101001110 %
#8040
#8045
1#
#8050
#8055
0#
b1111111111101011 %
#8060
#8065
1#
#8070
#8075
0#
b0000000000111000 %
#8080
#8085
1#
#8090
#8095
0#
b0000000000101111 %
#8100
#8105
1#
#8110
